(kicad_pcb (version 4) (host kicad "dummy file") 
  (gr_line (start 171.500 124.500) (end 171.500 72.500) (angle 90) (layer Edge.Cuts) (width 0.16))
  (gr_line (start 171.500 124.500) (end 161.500 124.500) (angle 90) (layer Edge.Cuts) (width 0.16))
  (gr_line (start 171.500 72.500) (end 161.500 72.500) (angle 90) (layer Edge.Cuts) (width 0.16))
  (gr_arc (start 160.000 124.500) (end 161.500 124.500) (angle -180.000) (layer Edge.Cuts) (width 0.16))
  (gr_arc (start 160.000 72.500) (end 158.500 72.500) (angle -180.000) (layer Edge.Cuts) (width 0.16))
  (gr_line (start 158.500 124.500) (end 158.500 126.100) (angle 90) (layer Edge.Cuts) (width 0.16))
  (gr_line (start 158.500 72.500) (end 158.500 70.500) (angle 90) (layer Edge.Cuts) (width 0.16))
  (gr_line (start 158.500 126.100) (end 138.500 126.100) (angle 90) (layer Edge.Cuts) (width 0.16))
  (gr_line (start 158.500 70.500) (end 138.500 70.500) (angle 90) (layer Edge.Cuts) (width 0.16))
  (gr_line (start 138.500 126.100) (end 138.500 124.500) (angle 90) (layer Edge.Cuts) (width 0.16))
  (gr_line (start 138.500 70.500) (end 138.500 72.500) (angle 90) (layer Edge.Cuts) (width 0.16))
  (gr_arc (start 137.000 124.500) (end 138.500 124.500) (angle -180.000) (layer Edge.Cuts) (width 0.16))
  (gr_arc (start 137.000 72.500) (end 135.500 72.500) (angle -180.000) (layer Edge.Cuts) (width 0.16))
  (gr_line (start 125.500 124.500) (end 135.500 124.500) (angle 90) (layer Edge.Cuts) (width 0.16))
  (gr_line (start 135.500 72.500) (end 125.500 72.500) (angle 90) (layer Edge.Cuts) (width 0.16))
  (gr_line (start 125.500 72.500) (end 125.500 124.500) (angle 90) (layer Edge.Cuts) (width 0.16))
  (gr_circle (center 134.800 102.000) (end 133.800 102.000) (layer Edge.Cuts) (width 0.16))
  (gr_circle (center 137.340 102.000) (end 136.340 102.000) (layer Edge.Cuts) (width 0.16))
  (gr_line (start 163.500 96.300) (end 139.000 96.300) (angle 90) (layer Edge.Cuts) (width 0.16))
  (gr_line (start 139.000 96.300) (end 139.000 102.200) (angle 90) (layer Edge.Cuts) (width 0.16))
  (gr_line (start 139.000 102.200) (end 163.500 102.200) (angle 90) (layer Edge.Cuts) (width 0.16))
  (gr_line (start 163.500 102.200) (end 163.500 96.300) (angle 90) (layer Edge.Cuts) (width 0.16))
  (gr_circle (center 168.000 96.000) (end 167.000 96.000) (layer Edge.Cuts) (width 0.16))
  (gr_circle (center 129.000 96.000) (end 128.000 96.000) (layer Edge.Cuts) (width 0.16))
  (gr_circle (center 168.000 80.500) (end 167.000 80.500) (layer Edge.Cuts) (width 0.16))
  (gr_circle (center 129.000 80.500) (end 128.000 80.500) (layer Edge.Cuts) (width 0.16))
  (gr_circle (center 168.000 111.500) (end 167.000 111.500) (layer Edge.Cuts) (width 0.16))
  (gr_circle (center 129.000 111.500) (end 128.000 111.500) (layer Edge.Cuts) (width 0.16))
)
 