EESchema Schematic File Version 4
EELAYER 30 0
EELAYER END
$Descr A4 11693 8268
encoding utf-8
Sheet 1 1
Title "QUBIK Bottom Plate"
Date "2019-11-04"
Rev ""
Comp "Libre Space Foundation"
Comment1 ""
Comment2 ""
Comment3 ""
Comment4 ""
$EndDescr
$Comp
L Switch:SW_Push_SPDT SW2
U 1 1 5DBCB0BE
P 4050 2900
F 0 "SW2" H 4050 3185 50  0000 C CNN
F 1 "Kill SW" H 4050 3094 50  0000 C CNN
F 2 "lsf-kicad-lib:D2F-L2-A1" H 4050 2900 50  0001 C CNN
F 3 "https://omronfs.omron.com/en_US/ecb/products/pdf/en-d2f.pdf" H 4050 2900 50  0001 C CNN
F 4 "D2F-L2-A1" H 4050 2900 50  0001 C CNN "Part Number"
	1    4050 2900
	1    0    0    -1  
$EndComp
$Comp
L Connector_Generic:Conn_01x06 J4
U 1 1 5DBCEB09
P 3200 4000
F 0 "J4" H 3280 3900 50  0000 L CNN
F 1 "System 1" H 3280 3991 50  0000 L CNN
F 2 "Connector_JST:JST_SH_SM06B-SRSS-TB_1x06-1MP_P1.00mm_Horizontal" H 3200 4000 50  0001 C CNN
F 3 "~" H 3200 4000 50  0001 C CNN
F 4 "JST_SH_SM06B-SRSS-TB" H 3200 4000 50  0001 C CNN "Part Number"
	1    3200 4000
	-1   0    0    -1  
$EndComp
$Comp
L Connector_Generic:Conn_01x06 J2
U 1 1 5DBD00EC
P 4400 4100
F 0 "J2" H 4480 4092 50  0000 L CNN
F 1 "COMMS" H 4480 4001 50  0000 L CNN
F 2 "Connector_JST:JST_SH_SM06B-SRSS-TB_1x06-1MP_P1.00mm_Horizontal" H 4400 4100 50  0001 C CNN
F 3 "~" H 4400 4100 50  0001 C CNN
F 4 "JST_SH_SM06B-SRSS-TB" H 4400 4100 50  0001 C CNN "Part Number"
	1    4400 4100
	1    0    0    1   
$EndComp
$Comp
L power:GND #PWR03
U 1 1 5DBD81A8
P 3950 1900
F 0 "#PWR03" H 3950 1650 50  0001 C CNN
F 1 "GND" H 3955 1727 50  0000 C CNN
F 2 "" H 3950 1900 50  0001 C CNN
F 3 "" H 3950 1900 50  0001 C CNN
	1    3950 1900
	1    0    0    -1  
$EndComp
Wire Wire Line
	4200 4300 4050 4300
Wire Wire Line
	3400 4200 3550 4200
Wire Wire Line
	4200 4100 4050 4100
Wire Wire Line
	3400 4000 3550 4000
Wire Wire Line
	4200 3900 4050 3900
Wire Wire Line
	3400 3800 3550 3800
$Comp
L Connector_Generic:Conn_02x08_Odd_Even J3
U 1 1 5DBE19D2
P 3850 3900
F 0 "J3" H 3900 3367 50  0000 C CNN
F 1 "Umbilical" H 3900 3276 50  0000 C CNN
F 2 "Connector_Hirose:Hirose_DF11-16DP-2DSA_2x08_P2.00mm_Vertical" H 3850 3900 50  0001 C CNN
F 3 "~" H 3850 3900 50  0001 C CNN
F 4 "DF11-16DP-2DSA(24)" H 3850 3900 50  0001 C CNN "Part Number"
	1    3850 3900
	-1   0    0    -1  
$EndComp
Wire Wire Line
	4050 4200 4200 4200
Wire Wire Line
	3550 4100 3400 4100
Wire Wire Line
	4050 4000 4200 4000
Wire Wire Line
	3550 3900 3400 3900
Wire Wire Line
	4050 3800 4200 3800
Wire Wire Line
	3550 4300 3400 4300
$Comp
L power:GND #PWR01
U 1 1 5DBE9521
P 4650 3700
F 0 "#PWR01" H 4650 3450 50  0001 C CNN
F 1 "GND" H 4655 3527 50  0000 C CNN
F 2 "" H 4650 3700 50  0001 C CNN
F 3 "" H 4650 3700 50  0001 C CNN
	1    4650 3700
	-1   0    0    -1  
$EndComp
$Comp
L Connector:Conn_Coaxial J6
U 1 1 5DBF3A7E
P 3825 5300
F 0 "J6" H 3925 5275 50  0000 L CNN
F 1 "ANT" H 3925 5184 50  0000 L CNN
F 2 "lsf-kicad-lib:mmcx_conn" H 3825 5300 50  0001 C CNN
F 3 " ~" H 3825 5300 50  0001 C CNN
F 4 " CONMMCX002-SMD " H 3825 5300 50  0001 C CNN "Part Number"
	1    3825 5300
	0    1    -1   0   
$EndComp
Wire Wire Line
	1950 5300 2150 5300
$Comp
L Mechanical:MountingHole H4
U 1 1 5DC0C827
P 800 7450
F 0 "H4" H 900 7496 50  0000 L CNN
F 1 "SW" H 900 7405 50  0000 L CNN
F 2 "MountingHole:MountingHole_2.2mm_M2_ISO14580" H 800 7450 50  0001 C CNN
F 3 "~" H 800 7450 50  0001 C CNN
	1    800  7450
	1    0    0    -1  
$EndComp
$Comp
L Mechanical:MountingHole H3
U 1 1 5DC0D659
P 800 7250
F 0 "H3" H 900 7296 50  0000 L CNN
F 1 "SW" H 900 7205 50  0000 L CNN
F 2 "MountingHole:MountingHole_2.2mm_M2_ISO14580" H 800 7250 50  0001 C CNN
F 3 "~" H 800 7250 50  0001 C CNN
	1    800  7250
	1    0    0    -1  
$EndComp
$Comp
L Mechanical:MountingHole H2
U 1 1 5DC0DBA1
P 800 7050
F 0 "H2" H 900 7096 50  0000 L CNN
F 1 "SW" H 900 7005 50  0000 L CNN
F 2 "MountingHole:MountingHole_2.2mm_M2_ISO14580" H 800 7050 50  0001 C CNN
F 3 "~" H 800 7050 50  0001 C CNN
	1    800  7050
	1    0    0    -1  
$EndComp
$Comp
L Mechanical:MountingHole H1
U 1 1 5DC0DE4F
P 800 6850
F 0 "H1" H 900 6896 50  0000 L CNN
F 1 "SW" H 900 6805 50  0000 L CNN
F 2 "MountingHole:MountingHole_2.2mm_M2_ISO14580" H 800 6850 50  0001 C CNN
F 3 "~" H 800 6850 50  0001 C CNN
	1    800  6850
	1    0    0    -1  
$EndComp
$Comp
L Mechanical:MountingHole_Pad H6
U 1 1 5DC0E7DE
P 2150 5200
F 0 "H6" H 2150 5487 50  0000 C CNN
F 1 "ANT" H 2150 5396 50  0000 C CNN
F 2 "MountingHole:MountingHole_2.2mm_M2_ISO14580_Pad" H 2150 5200 50  0001 C CNN
F 3 "~" H 2150 5200 50  0001 C CNN
	1    2150 5200
	1    0    0    -1  
$EndComp
$Comp
L Mechanical:MountingHole_Pad H5
U 1 1 5DC0F487
P 1950 5200
F 0 "H5" H 1950 5487 50  0000 C CNN
F 1 "ANT" H 1950 5396 50  0000 C CNN
F 2 "MountingHole:MountingHole_2.2mm_M2_ISO14580_Pad" H 1950 5200 50  0001 C CNN
F 3 "~" H 1950 5200 50  0001 C CNN
	1    1950 5200
	1    0    0    -1  
$EndComp
$Comp
L Mechanical:MountingHole_Pad H7
U 1 1 5DC0F6F5
P 2150 5800
F 0 "H7" V 2104 5950 50  0000 L CNN
F 1 "ANT" V 2195 5950 50  0000 L CNN
F 2 "MountingHole:MountingHole_2.2mm_M2_ISO14580_Pad" H 2150 5800 50  0001 C CNN
F 3 "~" H 2150 5800 50  0001 C CNN
	1    2150 5800
	-1   0    0    1   
$EndComp
$Comp
L Mechanical:MountingHole_Pad H8
U 1 1 5DC10565
P 1950 5800
F 0 "H8" V 1904 5950 50  0000 L CNN
F 1 "ANT" V 1995 5950 50  0000 L CNN
F 2 "MountingHole:MountingHole_2.2mm_M2_ISO14580_Pad" H 1950 5800 50  0001 C CNN
F 3 "~" H 1950 5800 50  0001 C CNN
	1    1950 5800
	-1   0    0    1   
$EndComp
Wire Wire Line
	2150 5700 1950 5700
$Comp
L Connector_Generic:Conn_01x08 J1
U 1 1 5DC0951B
P 3950 1250
F 0 "J1" V 4167 1196 50  0000 C CNN
F 1 "EPS" V 4076 1196 50  0000 C CNN
F 2 "" H 3950 1250 50  0001 C CNN
F 3 "~" H 3950 1250 50  0001 C CNN
F 4 "DF11-8DP-2DS(24)" H 3950 1250 50  0001 C CNN "Part Number"
	1    3950 1250
	0    -1   -1   0   
$EndComp
Wire Wire Line
	3150 2350 3150 2800
Wire Wire Line
	3150 2800 3350 2800
Text Label 3650 1650 1    50   ~ 0
BAT+
Text Label 4150 1450 3    50   ~ 0
ANT_REL
$Comp
L Device:R R2
U 1 1 5DC1E2DF
P 7200 2850
F 0 "R2" H 7270 2896 50  0000 L CNN
F 1 "12Ω, 1/8W" H 7270 2805 50  0000 L CNN
F 2 "Resistor_THT:R_Axial_DIN0204_L3.6mm_D1.6mm_P7.62mm_Horizontal" V 7130 2850 50  0001 C CNN
F 3 "~" H 7200 2850 50  0001 C CNN
F 4 "RN55D12R0FB14" H 7200 2850 50  0001 C CNN "Part Number"
	1    7200 2850
	1    0    0    -1  
$EndComp
$Comp
L Device:R R1
U 1 1 5DC1E97C
P 6900 2850
F 0 "R1" H 6831 2896 50  0000 R CNN
F 1 "12Ω, 1/8W" H 6831 2805 50  0000 R CNN
F 2 "Resistor_THT:R_Axial_DIN0204_L3.6mm_D1.6mm_P7.62mm_Horizontal" V 6830 2850 50  0001 C CNN
F 3 "~" H 6900 2850 50  0001 C CNN
F 4 "RN55D12R0FB14" H 6900 2850 50  0001 C CNN "Part Number"
	1    6900 2850
	1    0    0    -1  
$EndComp
Text Label 4050 3400 0    50   ~ 0
BAT_CHG-
Text Label 2525 5300 2    50   ~ 0
RF_OUT
Wire Wire Line
	6900 2500 6900 2700
Wire Wire Line
	6900 2500 7200 2500
Wire Wire Line
	7200 2500 7200 2700
Wire Wire Line
	7200 3000 7200 3150
Connection ~ 6900 2500
Wire Wire Line
	6900 3000 6900 3150
$Comp
L power:GND #PWR0102
U 1 1 5DC317F0
P 7050 3850
F 0 "#PWR0102" H 7050 3600 50  0001 C CNN
F 1 "GND" H 7055 3677 50  0000 C CNN
F 2 "" H 7050 3850 50  0001 C CNN
F 3 "" H 7050 3850 50  0001 C CNN
	1    7050 3850
	1    0    0    -1  
$EndComp
$Comp
L Device:R R3
U 1 1 5DC31E37
P 6250 3600
F 0 "R3" H 6320 3646 50  0000 L CNN
F 1 "10k" H 6320 3555 50  0000 L CNN
F 2 "Resistor_SMD:R_0603_1608Metric_Pad1.05x0.95mm_HandSolder" V 6180 3600 50  0001 C CNN
F 3 "~" H 6250 3600 50  0001 C CNN
F 4 "CRCW060310K0FKEA" H 6250 3600 50  0001 C CNN "Part Number"
	1    6250 3600
	1    0    0    -1  
$EndComp
Wire Wire Line
	6600 3350 6250 3350
Wire Wire Line
	6250 3350 6250 3450
$Comp
L power:GND #PWR0103
U 1 1 5DC32FE5
P 6250 3850
F 0 "#PWR0103" H 6250 3600 50  0001 C CNN
F 1 "GND" H 6255 3677 50  0000 C CNN
F 2 "" H 6250 3850 50  0001 C CNN
F 3 "" H 6250 3850 50  0001 C CNN
	1    6250 3850
	1    0    0    -1  
$EndComp
Wire Wire Line
	7050 3550 7050 3850
Wire Wire Line
	6250 3750 6250 3850
Wire Wire Line
	6900 3150 7200 3150
$Comp
L lsf-kicad:FDN537N Q1
U 1 1 5DC37B62
P 6750 3350
F 0 "Q1" H 6600 3600 50  0000 L CNN
F 1 "FDN537N" H 6350 3500 50  0000 L CNN
F 2 "Package_TO_SOT_SMD:SuperSOT-3" H 6950 3275 50  0001 L CIN
F 3 "https://www.onsemi.com/pub/Collateral/FDN537N-D.pdf" H 6750 3350 50  0001 L CNN
F 4 "FDN537N" H 6750 3350 50  0001 C CNN "Part Number"
	1    6750 3350
	1    0    0    -1  
$EndComp
Connection ~ 6900 3150
Connection ~ 7200 3150
Wire Wire Line
	6900 3550 7050 3550
Connection ~ 7050 3550
Wire Wire Line
	7050 3550 7200 3550
Wire Wire Line
	7500 3350 7550 3350
Text Label 7550 3350 0    50   ~ 0
ANT_REL
Text Label 6250 3350 0    50   ~ 0
ANT_REL
Wire Wire Line
	3950 1450 3950 1900
Text Label 4500 1600 0    50   ~ 0
ANT_SENSE
$Comp
L Switch:SW_SPST SW3
U 1 1 5DCA4E25
P 5200 1600
F 0 "SW3" H 5200 1835 50  0000 C CNN
F 1 "SW_SPST" H 5200 1744 50  0000 C CNN
F 2 "lsf-kicad-lib:SW_SPST_SPVN110107" H 5200 1600 50  0001 C CNN
F 3 "~" H 5200 1600 50  0001 C CNN
F 4 "SPVN110107" H 5200 1600 50  0001 C CNN "Part Number"
	1    5200 1600
	-1   0    0    1   
$EndComp
$Comp
L power:GND #PWR02
U 1 1 5DCA745F
P 5400 2100
F 0 "#PWR02" H 5400 1850 50  0001 C CNN
F 1 "GND" H 5405 1927 50  0000 C CNN
F 2 "" H 5400 2100 50  0001 C CNN
F 3 "" H 5400 2100 50  0001 C CNN
	1    5400 2100
	1    0    0    -1  
$EndComp
Wire Wire Line
	5400 1600 5400 1950
Wire Wire Line
	4350 1600 5000 1600
Wire Wire Line
	4650 3700 4050 3700
Wire Wire Line
	4350 1600 4350 1450
Wire Wire Line
	3750 2500 4250 2500
$Comp
L Device:R R4
U 1 1 5DCC85C2
P 4250 2350
F 0 "R4" H 4320 2396 50  0000 L CNN
F 1 "12k" H 4320 2305 50  0000 L CNN
F 2 "Resistor_SMD:R_0603_1608Metric_Pad1.05x0.95mm_HandSolder" V 4180 2350 50  0001 C CNN
F 3 "~" H 4250 2350 50  0001 C CNN
F 4 " RCS060312K0FKEA " H 4250 2350 50  0001 C CNN "Part Number"
	1    4250 2350
	1    0    0    -1  
$EndComp
Connection ~ 4250 2500
$Comp
L Device:R R5
U 1 1 5DCC8FA2
P 4600 1950
F 0 "R5" V 4393 1950 50  0000 C CNN
F 1 "33k" V 4484 1950 50  0000 C CNN
F 2 "Resistor_SMD:R_0603_1608Metric_Pad1.05x0.95mm_HandSolder" V 4530 1950 50  0001 C CNN
F 3 "~" H 4600 1950 50  0001 C CNN
F 4 " RCS060333K0FKEA " H 4600 1950 50  0001 C CNN "Part Number"
	1    4600 1950
	0    1    1    0   
$EndComp
Wire Wire Line
	4250 2200 4250 1950
Wire Wire Line
	4250 1950 4450 1950
Wire Wire Line
	4750 1950 5400 1950
Connection ~ 5400 1950
Wire Wire Line
	5400 1950 5400 2100
Wire Wire Line
	4250 1450 4250 1950
Connection ~ 4250 1950
$Comp
L power:PWR_FLAG #FLG0101
U 1 1 5DD4792E
P 1525 7075
F 0 "#FLG0101" H 1525 7150 50  0001 C CNN
F 1 "PWR_FLAG" H 1525 7248 50  0000 C CNN
F 2 "" H 1525 7075 50  0001 C CNN
F 3 "~" H 1525 7075 50  0001 C CNN
	1    1525 7075
	1    0    0    -1  
$EndComp
$Comp
L power:GND #PWR0101
U 1 1 5DD49FF1
P 1525 7200
F 0 "#PWR0101" H 1525 6950 50  0001 C CNN
F 1 "GND" H 1530 7027 50  0000 C CNN
F 2 "" H 1525 7200 50  0001 C CNN
F 3 "" H 1525 7200 50  0001 C CNN
	1    1525 7200
	1    0    0    -1  
$EndComp
Wire Wire Line
	1525 7200 1525 7075
$Comp
L lsf-kicad:FDN537N Q2
U 1 1 5DC3BBAF
P 7350 3350
F 0 "Q2" H 7200 3600 50  0000 L CNN
F 1 "FDN537N" H 6950 3500 50  0000 L CNN
F 2 "Package_TO_SOT_SMD:SuperSOT-3" H 7550 3275 50  0001 L CIN
F 3 "https://www.onsemi.com/pub/Collateral/FDN537N-D.pdf" H 7350 3350 50  0001 L CNN
F 4 "FDN537N" H 7350 3350 50  0001 C CNN "Part Number"
	1    7350 3350
	-1   0    0    -1  
$EndComp
Wire Wire Line
	5000 1350 5000 1600
Connection ~ 5000 1600
Wire Wire Line
	5400 1350 5400 1600
Connection ~ 5400 1600
$Comp
L Connector:TestPoint TP1
U 1 1 5DD84570
P 5000 1350
F 0 "TP1" H 5058 1468 50  0000 L CNN
F 1 "ANT-SW" H 5058 1377 50  0000 L CNN
F 2 "TestPoint:TestPoint_Pad_D1.5mm" H 5200 1350 50  0001 C CNN
F 3 "~" H 5200 1350 50  0001 C CNN
	1    5000 1350
	1    0    0    -1  
$EndComp
$Comp
L Connector:TestPoint TP2
U 1 1 5DD84A70
P 5400 1350
F 0 "TP2" H 5458 1468 50  0000 L CNN
F 1 "GND" H 5458 1377 50  0000 L CNN
F 2 "TestPoint:TestPoint_Pad_D1.5mm" H 5600 1350 50  0001 C CNN
F 3 "~" H 5600 1350 50  0001 C CNN
	1    5400 1350
	1    0    0    -1  
$EndComp
Wire Wire Line
	3650 1450 3650 2350
Wire Wire Line
	3650 2350 3150 2350
Wire Wire Line
	3750 1450 3750 2500
Connection ~ 3750 2500
NoConn ~ 4050 1450
Wire Wire Line
	3550 3200 3550 3600
Wire Wire Line
	3850 1450 3850 2900
Text Label 3850 1650 1    50   ~ 0
BAT-
$Comp
L power:GND #PWR0104
U 1 1 5DE03011
P 4600 2800
F 0 "#PWR0104" H 4600 2550 50  0001 C CNN
F 1 "GND" H 4605 2627 50  0000 C CNN
F 2 "" H 4600 2800 50  0001 C CNN
F 3 "" H 4600 2800 50  0001 C CNN
	1    4600 2800
	1    0    0    -1  
$EndComp
Wire Wire Line
	4600 2800 4250 2800
Text Label 3550 3400 2    50   ~ 0
EPS_PWR
Text Label 3750 1650 1    50   ~ 0
EPS
Wire Wire Line
	3550 3200 3350 3200
Wire Wire Line
	3350 3200 3350 3000
Wire Wire Line
	4050 3600 4050 3200
Wire Wire Line
	4050 3200 4250 3200
Wire Wire Line
	4250 3200 4250 3000
Wire Wire Line
	3550 3700 3150 3700
Wire Wire Line
	3150 3700 3150 2800
Connection ~ 3150 2800
Wire Wire Line
	4250 2500 6900 2500
Wire Wire Line
	3750 2900 3750 2500
$Comp
L Switch:SW_Push_SPDT SW1
U 1 1 5DBCA844
P 3550 2900
F 0 "SW1" H 3550 3185 50  0000 C CNN
F 1 "Kill SW" H 3550 3094 50  0000 C CNN
F 2 "lsf-kicad-lib:D2F-L2-A" H 3550 2900 50  0001 C CNN
F 3 "https://omronfs.omron.com/en_US/ecb/products/pdf/en-d2f.pdf" H 3550 2900 50  0001 C CNN
F 4 "D2F-L2-A" H 3550 2900 50  0001 C CNN "Part Number"
	1    3550 2900
	-1   0    0    -1  
$EndComp
$Comp
L Graphic:Logo_Open_Hardware_Small #LOGO1
U 1 1 5DD28C57
P 10850 6850
F 0 "#LOGO1" H 10850 7125 50  0001 C CNN
F 1 "Logo_Open_Hardware_Small" H 10850 6625 50  0001 C CNN
F 2 "Symbol:OSHW-Logo2_7.3x6mm_SilkScreen" H 10850 6850 50  0001 C CNN
F 3 "~" H 10850 6850 50  0001 C CNN
	1    10850 6850
	1    0    0    -1  
$EndComp
Wire Wire Line
	3825 5500 3825 5700
Wire Wire Line
	3525 5700 3825 5700
Wire Wire Line
	3625 5300 3525 5300
Wire Wire Line
	2150 5300 2925 5300
Connection ~ 2150 5300
Wire Wire Line
	2150 5700 2925 5700
Connection ~ 2150 5700
$Comp
L lsf-kicad:MABA-011094 TR1
U 1 1 5DFEBC59
P 3225 5500
F 0 "TR1" H 3225 5075 50  0000 C CNN
F 1 "MABA-011094" H 3225 5166 50  0000 C CNN
F 2 "lsf-kicad-lib:MABA-011094" H 3225 5150 50  0001 C CNN
F 3 "https://gr.mouser.com/datasheet/2/249/MABA-011094-1489203.pdf" V 3225 5500 50  0001 C CNN
F 4 "MABA-011094" H 3225 5500 50  0001 C CNN "Part Number"
	1    3225 5500
	-1   0    0    1   
$EndComp
$EndSCHEMATC
